3 Chiedere aiuto | pigR: R, per pigri
…
# il data frame
df

## # A tibble: 10,000 × 8
##          a      b       c      d      e      f      g      h
##      <dbl>  <dbl>   <dbl>  <dbl>  <dbl>  <dbl>  <dbl>  <dbl>
##  1 -0.613  -1.41  -0.648   2.07  -1.66  -0.209  0.565  1.13 
##  2 -0.467   1.23   1.17   -0.166 -0.553 -1.22   1.14  -0.961
##  3  0.774   0.337  0.0334 -1.86   2.02  -1.36   0.547 -0.656
##  4 -0.326   1.18  -0.609  -0.476 -0.717 -0.969  0.617 -2.35 
##  5  1.27   -0.676  0.480  -0.204  1.27   0.135  1.29   1.21 
##  6 -0.651   0.457  0.413  -0.789 -1.05  -0.286 -0.556 -2.30 
##  7  0.0842 -1.42   0.344   0.370 -0.212  2.57   0.529 -0.122
##  8  0.840  -1.05  -0.394  -1.22  -0.838  0.393  1.95   1.33 
##  9 -2.48    0.253  0.331  -1.11   1.69  -0.340  0.338  0.753
## 10  0.509   0.429  1.68    1.05   0.304  1.49   1.03   1.24 
## # ℹ 9,990 more rows
…
