4 Dati, oggetti, funzioni (e tutto il resto) | pigR: R, per pigri
…
Notate come, scorrendo le tabelle, è possibile individuare facilmente le sottotabelle: in iris ogni valore della variabile Species definisce una sottotabella. In Arthritis ogni combinazione di una o più delle variabili Treated, Sex e Improved definisce una o più sottotabelle.

Sfortunatamente, non tutti i dati sono “tidy”. Osservate il dataset billboard del pacchetto tidyr.

library(tidyr)
data("billboard")
head(billboard,25)

## # A tibble: 25 × 79
##    artist     track date.entered   wk1   wk2   wk3   wk4   wk5   wk6   wk7   wk8
##    <chr>      <chr> <date>       <dbl> <dbl> <dbl> <dbl> <dbl> <dbl> <dbl> <dbl>
##  1 2 Pac      Baby… 2000-02-26      87    82    72    77    87    94    99    NA
##  2 2Ge+her    The … 2000-09-02      91    87    92    NA    NA    NA    NA    NA
##  3 3 Doors D… Kryp… 2000-04-08      81    70    68    67    66    57    54    53
##  4 3 Doors D… Loser 2000-10-21      76    76    72    69    67    65    55    59
##  5 504 Boyz   Wobb… 2000-04-15      57    34    25    17    17    31    36    49
##  6 98^0       Give… 2000-08-19      51    39    34    26    26    19     2     2
##  7 A*Teens    Danc… 2000-07-08      97    97    96    95   100    NA    NA    NA
##  8 Aaliyah    I Do… 2000-01-29      84    62    51    41    38    35    35    38
##  9 Aaliyah    Try … 2000-03-18      59    53    38    28    21    18    16    14
## 10 Adams, Yo… Open… 2000-08-26      76    76    74    69    68    67    61    58
## # ℹ 15 more rows
## # ℹ 68 more variables: wk9 <dbl>, wk10 <dbl>, wk11 <dbl>, wk12 <dbl>,
## #   wk13 <dbl>, wk14 <dbl>, wk15 <dbl>, wk16 <dbl>, wk17 <dbl>, wk18 <dbl>,
## #   wk19 <dbl>, wk20 <dbl>, wk21 <dbl>, wk22 <dbl>, wk23 <dbl>, wk24 <dbl>,
## #   wk25 <dbl>, wk26 <dbl>, wk27 <dbl>, wk28 <dbl>, wk29 <dbl>, wk30 <dbl>,
## #   wk31 <dbl>, wk32 <dbl>, wk33 <dbl>, wk34 <dbl>, wk35 <dbl>, wk36 <dbl>,
## #   wk37 <dbl>, wk38 <dbl>, wk39 <dbl>, wk40 <dbl>, wk41 <dbl>, wk42 <dbl>, …
…
Quando si uniscono molti data frame o data frame di grandi dimensioni si possono usare i comandi equivalenti di dplyr. Prova a eseguire i seguenti comandi nella console:

molta_artrite <- dplyr::bind_rows(Arthritis, Arthritis)
sei_per_tre <- dplyr::bind_cols(tre_per_tre, tre_per_tre)

Ricordati che puoi omettere dplyr:: se non c’è ambiguità nel nome della funzione mentre non puoi farlo se una funzione con lo stesso nome lo ha “mascherato” durante il caricamento dei pacchetti; nota come i nomi delle due funzioni bind_rows() e bind_cols() siano più intuitivi di rbind() e cbind(): questa è una caratteristica di molte funzioni e parametri di funzioni del tidyverse.

Le tibbles sono una versione “migliorata” dei data frame. Le puoi creare trasformando un data frame on con il comando tibble():

# creare una tibble con as_tibble
tib_Arthritis <- as_tibble(Arthritis)
tib_Arthritis

## # A tibble: 84 × 5
##       ID Treatment Sex     Age Improved
##    <int> <fct>     <fct> <int> <ord>   
##  1    57 Treated   Male     27 Some    
##  2    46 Treated   Male     29 None    
##  3    77 Treated   Male     30 None    
##  4    17 Treated   Male     32 Marked  
##  5    36 Treated   Male     46 Marked  
##  6    23 Treated   Male     58 Marked  
##  7    75 Treated   Male     59 None    
##  8    39 Treated   Male     59 Marked  
##  9    33 Treated   Male     63 None    
## 10    55 Treated   Male     63 None    
## # ℹ 74 more rows
…
