9 Lottare con i dati. | pigR: R, per pigri
…
## `summarise()` has grouped output by 'manufacturer'. You can override using the
## `.groups` argument.

mpg_riassunto

## # A tibble: 32 × 6
##    manufacturer class      media_hwy devst_why media_cty devst_cty_cty
##    <chr>        <chr>          <dbl>     <dbl>     <dbl>         <dbl>
##  1 audi         compact         26.9     2.02       26.9         2.02 
##  2 audi         midsize         24       1          24           1    
##  3 chevrolet    2seater         24.8     1.30       24.8         1.30 
##  4 chevrolet    midsize         27.6     1.82       27.6         1.82 
##  5 chevrolet    suv             17.1     2.20       17.1         2.20 
##  6 dodge        minivan         22.4     2.06       22.4         2.06 
##  7 dodge        pickup          16.1     2.21       16.1         2.21 
##  8 dodge        suv             16       2          16           2    
##  9 ford         pickup          16.4     0.787      16.4         0.787
## 10 ford         subcompact      23.2     2.17       23.2         2.17 
## # ℹ 22 more rows
…
